{
	"id": "55b1ff04-563c-4c07-a0a1-429a14463d56",
	"name": "EndangeredNature",
	"timestamp": "2022-11-16T03:44:50.607Z",
	"collection_id": "5967489-3eeebe2f-8f31-40ed-b233-d8ddf5986857",
	"folder_id": 0,
	"environment_id": "0",
	"totalPass": 6,
	"totalFail": 0,
	"results": [
		{
			"id": "94146c09-a592-483f-a9b9-ab673052b265",
			"name": "Get a list of all states and their information. States returned by this call will not have information about plants and animals.",
			"url": "https://api.endangerednature.me/states",
			"time": 4096,
			"responseCode": {
				"code": 200,
				"name": "OK"
			},
			"tests": {
				"states test": true
			},
			"testPassFailCounts": {
				"states test": {
					"pass": 1,
					"fail": 0
				}
			},
			"times": [
				4096
			],
			"allTests": [
				{
					"states test": true
				}
			]
		},
		{
			"id": "9dafccb4-4a1e-482f-a67c-5c34cf7790c9",
			"name": "Get detailed information about a state",
			"url": "https://api.endangerednature.me/states/20",
			"time": 10781,
			"responseCode": {
				"code": 200,
				"name": "OK"
			},
			"tests": {
				"states id test": true
			},
			"testPassFailCounts": {
				"states id test": {
					"pass": 1,
					"fail": 0
				}
			},
			"times": [
				10781
			],
			"allTests": [
				{
					"states id test": true
				}
			]
		},
		{
			"id": "a36730aa-c2a7-453e-a248-112a6f45be45",
			"name": "Get a list of all animals and their information",
			"url": "https://api.endangerednature.me/animals",
			"time": 7282,
			"responseCode": {
				"code": 200,
				"name": "OK"
			},
			"tests": {
				"animals test": true
			},
			"testPassFailCounts": {
				"animals test": {
					"pass": 1,
					"fail": 0
				}
			},
			"times": [
				7282
			],
			"allTests": [
				{
					"animals test": true
				}
			]
		},
		{
			"id": "c50a4d31-8938-49d1-97fe-91153e03f47d",
			"name": "Get detailed information about an animal",
			"url": "https://api.endangerednature.me/animals/20",
			"time": 1110,
			"responseCode": {
				"code": 200,
				"name": "OK"
			},
			"tests": {
				"animals id test": true
			},
			"testPassFailCounts": {
				"animals id test": {
					"pass": 1,
					"fail": 0
				}
			},
			"times": [
				1110
			],
			"allTests": [
				{
					"animals id test": true
				}
			]
		},
		{
			"id": "7b836da9-dd95-40d2-a173-4cf1ca0dd3f3",
			"name": "Get a list of all plants and their information",
			"url": "https://api.endangerednature.me/plants",
			"time": 7297,
			"responseCode": {
				"code": 200,
				"name": "OK"
			},
			"tests": {
				"plants test": true
			},
			"testPassFailCounts": {
				"plants test": {
					"pass": 1,
					"fail": 0
				}
			},
			"times": [
				7297
			],
			"allTests": [
				{
					"plants test": true
				}
			]
		},
		{
			"id": "f1b27740-fb1f-4bd6-8238-e31a59f12be6",
			"name": "Get detailed information about a plant",
			"url": "https://api.endangerednature.me/plants/20",
			"time": 1416,
			"responseCode": {
				"code": 200,
				"name": "OK"
			},
			"tests": {
				"plants id test": true
			},
			"testPassFailCounts": {
				"plants id test": {
					"pass": 1,
					"fail": 0
				}
			},
			"times": [
				1416
			],
			"allTests": [
				{
					"plants id test": true
				}
			]
		}
	],
	"count": 1,
	"totalTime": 31982,
	"collection": {
		"requests": [
			{
				"id": "94146c09-a592-483f-a9b9-ab673052b265",
				"method": "GET"
			},
			{
				"id": "9dafccb4-4a1e-482f-a67c-5c34cf7790c9",
				"method": "GET"
			},
			{
				"id": "a36730aa-c2a7-453e-a248-112a6f45be45",
				"method": "GET"
			},
			{
				"id": "c50a4d31-8938-49d1-97fe-91153e03f47d",
				"method": "GET"
			},
			{
				"id": "7b836da9-dd95-40d2-a173-4cf1ca0dd3f3",
				"method": "GET"
			},
			{
				"id": "f1b27740-fb1f-4bd6-8238-e31a59f12be6",
				"method": "GET"
			}
		]
	}
}